…
## Multiclass metrics

hpc\_cv is a dataframe contains the predicted classes and class
probabilities for Linear Discriminant Analysis model fit to the HPC data
set from Kuhn and Johnson (2013). These data are the assessment sets
from a 10-fold Cross-Validation scheme. The data column columns for the
true class (obs), the class prediction (pred) and columns for each class
probability (columns VF, F, M, and L). Additionally, a column for the
resample indicator is included.

``` r
data("hpc_cv")
hpc_cv = as_tibble(hpc_cv)
hpc_cv
#> # A tibble: 3,467 x 7
#>    obs   pred     VF      F       M          L Resample
#>    <fct> <fct> <dbl>  <dbl>   <dbl>      <dbl> <chr>   
#>  1 VF    VF    0.914 0.0779 0.00848 0.0000199  Fold01  
#>  2 VF    VF    0.938 0.0571 0.00482 0.0000101  Fold01  
#>  3 VF    VF    0.947 0.0495 0.00316 0.00000500 Fold01  
#>  4 VF    VF    0.929 0.0653 0.00579 0.0000156  Fold01  
#>  5 VF    VF    0.942 0.0543 0.00381 0.00000729 Fold01  
#>  6 VF    VF    0.951 0.0462 0.00272 0.00000384 Fold01  
#>  7 VF    VF    0.914 0.0782 0.00767 0.0000354  Fold01  
#>  8 VF    VF    0.918 0.0744 0.00726 0.0000157  Fold01  
#>  9 VF    VF    0.843 0.128  0.0296  0.000192   Fold01  
#> 10 VF    VF    0.920 0.0728 0.00703 0.0000147  Fold01  
#> # ... with 3,457 more rows
```
…
